{
  "baseUrl": "http://localhost:3000",
  "pluginsFile": false,
  "supportFile": false,
  "video": false,
  "screenshotsFolder": "specifications/screenshots",
  "integrationFolder": "specifications",
  "fixturesFolder": false,
  "defaultCommandTimeout": 3000
}
